Milestone2/sim/transcript
# vsim work.branchControl_tb -c -do "run -all; exit" 
# Start time: 22:12:49 on Mar 10,2025
# Loading sv_std.std
# Loading work.branchControl_tb
# Loading work.branchControl
# Loading work.xorLogic
# Loading work.branchLessControl
# run -all
# Starting testbench...
# [Passed] at Time=10000 | rs1=00000010, rs2=00000010, brUnsign=0 -> brLess=0, brEqual=1
# [Passed] at Time=20000 | rs1=c00f0a10, rs2=c00f0a10, brUnsign=0 -> brLess=0, brEqual=1
# [Passed] at Time=30000 | rs1=ca0f0a10, rs2=ca0f0a10, brUnsign=0 -> brLess=0, brEqual=1
# [Passed] at Time=40000 | rs1=ca0fba10, rs2=ca0fba10, brUnsign=1 -> brLess=0, brEqual=1
# [Passed] at Time=50000 | rs1=fffffff0, rs2=00000010, brUnsign=0 -> brLess=1, brEqual=0
# [Passed] at Time=60000 | rs1=ffff0ff0, rs2=10000010, brUnsign=0 -> brLess=1, brEqual=0
# [Passed] at Time=70000 | rs1=ffab0ff0, rs2=00000000, brUnsign=0 -> brLess=1, brEqual=0
# [Passed] at Time=80000 | rs1=00000020, rs2=00000010, brUnsign=0 -> brLess=0, brEqual=0
# [Passed] at Time=90000 | rs1=10a00020, rs2=10900010, brUnsign=0 -> brLess=0, brEqual=0
# [Passed] at Time=100000 | rs1=8fa00020, rs2=80b00010, brUnsign=0 -> brLess=0, brEqual=0
# [Passed] at Time=110000 | rs1=00000000, rs2=ffffffff, brUnsign=0 -> brLess=0, brEqual=0
# [Passed] at Time=120000 | rs1=00000010, rs2=80000000, brUnsign=1 -> brLess=1, brEqual=0
# [Passed] at Time=130000 | rs1=7fff0000, rs2=80000000, brUnsign=1 -> brLess=1, brEqual=0
# [Passed] at Time=140000 | rs1=7fff0000, rs2=ff000000, brUnsign=1 -> brLess=1, brEqual=0
# [Passed] at Time=150000 | rs1=f0ff0000, rs2=f1000000, brUnsign=1 -> brLess=1, brEqual=0
# [Passed] at Time=160000 | rs1=80000000, rs2=00000010, brUnsign=1 -> brLess=0, brEqual=0
# [Passed] at Time=170000 | rs1=000a0000, rs2=0009ff10, brUnsign=1 -> brLess=0, brEqual=0
# [Passed] at Time=180000 | rs1=ffffff00, rs2=ffffff10, brUnsign=0 -> brLess=1, brEqual=0
# [Passed] at Time=190000 | rs1=fff0ff00, rs2=fff7ff10, brUnsign=0 -> brLess=1, brEqual=0
# [Passed] at Time=200000 | rs1=f0f0ff00, rs2=f1f7ff10, brUnsign=0 -> brLess=1, brEqual=0
# [Passed] at Time=210000 | rs1=7ef0ff00, rs2=7ff7ff10, brUnsign=0 -> brLess=1, brEqual=0
# [Passed] at Time=220000 | rs1=ffffff10, rs2=ffffff00, brUnsign=0 -> brLess=0, brEqual=0
# [Passed] at Time=230000 | rs1=ff5fff10, rs2=ff4fff00, brUnsign=0 -> brLess=0, brEqual=0
# [Passed] at Time=240000 | rs1=f05fff10, rs2=ef4fff00, brUnsign=0 -> brLess=0, brEqual=0
# Testbench completed. All tests executed.
# ** Note: $finish    : ./branchControl_tb.sv(207)
#    Time: 240 ns  Iteration: 0  Instance: /branchControl_tb
# End time: 22:12:50 on Mar 10,2025, Elapsed time: 0:00:01
# Errors: 0, Warnings: 0
