Milestone2/sim/transcript
# vsim work.controlLd_tb -c -do "run -all; exit" 
# Start time: 21:25:03 on Mar 16,2025
# Loading sv_std.std
# Loading work.controlLd_tb
# Loading work.controlLd
# run -all
# Test 1 PASSED: i_data=000000f4, i_unsign=0, i_mask=0001, o_data=fffffff4
# Test 2 PASSED: i_data=000000f4, i_unsign=1, i_mask=0001, o_data=000000f4
# Test 3 PASSED: i_data=0000fff4, i_unsign=0, i_mask=0011, o_data=fffffff4
# Test 4 PASSED: i_data=0000fff4, i_unsign=1, i_mask=0011, o_data=0000fff4
# Test 5 PASSED: i_data=aabbccdd, i_unsign=0, i_mask=1111, o_data=aabbccdd
# Test 6 PASSED: i_data=0000007f, i_unsign=0, i_mask=0001, o_data=0000007f
# Test 7 PASSED: i_data=0000007f, i_unsign=1, i_mask=0001, o_data=0000007f
# Test 8 PASSED: i_data=00007fff, i_unsign=0, i_mask=0011, o_data=00007fff
# Test 9 PASSED: i_data=00007fff, i_unsign=1, i_mask=0011, o_data=00007fff
# Test 10 PASSED: i_data=ffffffff, i_unsign=0, i_mask=0001, o_data=ffffffff
# Test 11 PASSED: i_data=ffffffff, i_unsign=1, i_mask=0001, o_data=000000ff
# Test 12 PASSED: i_data=ffffffff, i_unsign=0, i_mask=0011, o_data=ffffffff
# Test 13 PASSED: i_data=ffffffff, i_unsign=1, i_mask=0011, o_data=0000ffff
# Test 14 PASSED: i_data=12345678, i_unsign=0, i_mask=1111, o_data=12345678
# Test 15 PASSED: i_data=87654321, i_unsign=1, i_mask=1111, o_data=87654321
# ** Note: $finish    : ./controlLd_tb.sv(124)
#    Time: 150 ns  Iteration: 0  Instance: /controlLd_tb
# End time: 21:25:03 on Mar 16,2025, Elapsed time: 0:00:00
# Errors: 0, Warnings: 0
